{
    "treatmentplan_filename": "185662_S3_9.pdf",
    "ormco_order_type": "Refinement 3",
    "totalstages_upper": "56",
    "totalstages_lower": "56",
    "arch_size": "Big_Arch",
    "patient_name": "Free, Willy",
    "patient_gender": "M",
    "doctor_name": "Dr. Patel, Vishal",
    "doctor_address": "Parrearra, QLD",
    "doctor_phone": "8183235555",
    "molds": [
        {
            "stage_number": "1",
            "stage_qty": "1",
            "type": "aligner",
            "position": "upper",
            "id_tag": "185662U8A",
            "filename": "185662U8A.stl",
            "cutline_filename": "185662U8A.trm",
            "lasermark_filename": "185662U8A.txt",
            "cutout_hooks": [
                "26"
            ],
            "cutout_buttons": [
                "13",
                "22",
                "23"
            ],
            "boxnumber": "1",
            "bagimage_filename": "Bag_1.tif",
            "bagdata_filename": "Bag_1.txt",
            "boximage_filename": "Box_1.tif",
            "stage_type": "Active",
            "material_type": "TruGen XR"
        },
        {
            "stage_number": "1",
            "stage_qty": "1",
            "type": "aligner",
            "position": "lower",
            "id_tag": "185662U8AB",
            "filename": "185662U8AB.stl",
            "cutline_filename": "185662U8AB.trm",
            "lasermark_filename": "185662U8AB.txt",
            "cutout_hooks": "",
            "cutout_buttons": [
                "33",
                "34",
                "43",
                "44",
                "46"
            ],
            "boxnumber": "1",
            "bagimage_filename": "Bag_1.tif",
            "bagdata_filename": "Bag_1.txt",
            "boximage_filename": "Box_1.tif",
            "stage_type": "Active",
            material_type": "TruGen XT"
        },
        {
            "stage_number": "1",
            "stage_qty": "1",
            "type": "attachment_template",
            "position": "lower",
            "id_tag": "185662U8AE",
            "filename": "185662U8AE.stl",
            "cutline_filename": "185662U8AE.trm",
            "lasermark_filename": "185662U8AE.txt",
            "cutout_hooks": "",
            "cutout_buttons": [
                "33",
                "34",
                "43",
                "44",
                "46"
            ],
            "boxnumber": "1",
            "bagimage_filename": "Bag_1AT.tif",
            "bagdata_filename": "Bag_1AT.txt",
            "boximage_filename": "Box_1.tif",
            "stage_type": "Active",
            "material_type": "Copyplastv2"
        },
        {
            "stage_number": "2",
            "stage_qty": "1",
            "type": "aligner",
            "position": "upper",
            "id_tag": "101319U2A",
            "filename": "101319U2A.stl",
            "cutline_filename": "101319U2A.trm",
            "lasermark_filename": "101319U2A.txt",
            "cutout_hooks": [
                "26"
            ],
            "cutout_buttons": [
                "13",
                "22",
                "23"
            ],
            "boxnumber": "1",
            "bagimage_filename": "Bag_2.tif",
            "bagdata_filename": "Bag_2.txt",
            "boximage_filename": "Box_1.tif",
            "stage_type": "Active",
            material_type": "TruGen XR"
        },
        {
            "stage_number": "2",
            "stage_qty": "1",
            "type": "aligner",
            "position": "lower",
            "id_tag": "101319L2A",
            "filename": "101319L2A.stl",
            "cutline_filename": "101319L2A.trm",
            "lasermark_filename": "101319L2A.txt",
            "cutout_hooks": "",
            "cutout_buttons": [
                "33",
                "34",
                "43",
                "44",
                "46"
            ],
            "boxnumber": "1",
            "bagimage_filename": "Bag_2.tif",
            "bagdata_filename": "Bag_2.txt",
            "boximage_filename": "Box_1.tif",
            "stage_type": "Active",
            "material_type": "TruGen XR"
        }        
    ]
}
