2021/03/23 08:50:09  RFID Entry Check the part and try again, NO L OR U FOUND
2021/03/23 08:50:09  RFID Entry Check the part and try again, NO L OR U FOUND
2021/03/23 08:50:14  RFID Entry Check the part and try again, NO L OR U FOUND
2021/03/23 08:50:19  RFID Entry Check the part and try again, NO L OR U FOUND
2021/03/23 08:50:29  RFID Entry Check the part and try again, NO L OR U FOUND
2021/03/23 08:50:34  RFID Entry Check the part and try again, NO L OR U FOUND
2021/03/23 08:50:39  RFID Entry Check the part and try again, NO L OR U FOUND
2021/03/23 08:50:54  RFID Entry Check the part and try again, NO L OR U FOUND
2021/03/23 08:50:56  RFID Entry Check the part and try again, NO L OR U FOUND
2021/03/23 08:51:01  RFID Entry Check the part and try again, NO L OR U FOUND
2021/03/23 08:51:06  RFID Entry Check the part and try again, NO L OR U FOUND
2021/03/23 08:51:11  RFID Entry Check the part and try again, NO L OR U FOUND
2021/03/23 08:51:21  RFID Entry Check the part and try again, NO L OR U FOUND
2021/03/23 08:51:26  RFID Entry Check the part and try again, NO L OR U FOUND
2021/03/23 08:51:31  RFID Entry Check the part and try again, NO L OR U FOUND
2021/03/23 08:51:36  RFID Entry Check the part and try again, NO L OR U FOUND
2021/03/23 08:51:41  RFID Entry Check the part and try again, NO L OR U FOUND
2021/03/23 08:51:46  RFID Entry Check the part and try again, NO L OR U FOUND
2021/03/23 08:51:51  RFID Entry Check the part and try again, NO L OR U FOUND
2021/03/23 08:51:56  RFID Entry Check the part and try again, NO L OR U FOUND
2021/03/23 08:52:01  RFID Entry Check the part and try again, NO L OR U FOUND
2021/03/23 08:52:06  RFID Entry Check the part and try again, NO L OR U FOUND
2021/03/23 08:52:11  RFID Entry Check the part and try again, NO L OR U FOUND
2021/03/23 08:52:16  RFID Entry Check the part and try again, NO L OR U FOUND
2021/03/23 08:52:21  RFID Entry Check the part and try again, NO L OR U FOUND
2021/03/23 08:52:26  RFID Entry Check the part and try again, NO L OR U FOUND
2021/03/23 08:52:31  RFID Entry Check the part and try again, NO L OR U FOUND
2021/03/23 08:52:36  RFID Entry Check the part and try again, NO L OR U FOUND
2021/03/23 08:52:41  RFID Entry Check the part and try again, NO L OR U FOUND
2021/03/23 08:52:46  RFID Entry Check the part and try again, NO L OR U FOUND
2021/03/23 08:52:51  RFID Entry Check the part and try again, NO L OR U FOUND
2021/03/23 08:52:56  RFID Entry Check the part and try again, NO L OR U FOUND
2021/03/23 08:53:01  RFID Entry Check the part and try again, NO L OR U FOUND
2021/03/23 08:53:06  RFID Entry Check the part and try again, NO L OR U FOUND
2021/03/23 08:53:11  RFID Entry Check the part and try again, NO L OR U FOUND
2021/03/23 08:53:16  RFID Entry Check the part and try again, NO L OR U FOUND
2021/03/23 08:53:21  RFID Entry Check the part and try again, NO L OR U FOUND
2021/03/23 08:53:26  RFID Entry Check the part and try again, NO L OR U FOUND
2021/03/23 08:53:31  RFID Entry Check the part and try again, NO L OR U FOUND
2021/03/23 08:53:36  RFID Entry Check the part and try again, NO L OR U FOUND
2021/03/23 08:53:41  RFID Entry Check the part and try again, NO L OR U FOUND
2021/03/23 08:53:46  RFID Entry Check the part and try again, NO L OR U FOUND
2021/03/23 08:53:51  RFID Entry Check the part and try again, NO L OR U FOUND
2021/03/23 08:53:56  RFID Entry Check the part and try again, NO L OR U FOUND
2021/03/23 08:54:01  RFID Entry Check the part and try again, NO L OR U FOUND
2021/03/23 08:54:06  RFID Entry Check the part and try again, NO L OR U FOUND
2021/03/23 08:54:11  RFID Entry Check the part and try again, NO L OR U FOUND
2021/03/23 08:54:16  RFID Entry Check the part and try again, NO L OR U FOUND
2021/03/23 08:54:21  RFID Entry Check the part and try again, NO L OR U FOUND
2021/03/23 08:54:26  RFID Entry Check the part and try again, NO L OR U FOUND
2021/03/23 08:54:31  RFID Entry Check the part and try again, NO L OR U FOUND
2021/03/23 08:54:36  RFID Entry Check the part and try again, NO L OR U FOUND
2021/03/23 08:54:41  RFID Entry Check the part and try again, NO L OR U FOUND
2021/03/23 08:54:46  RFID Entry Check the part and try again, NO L OR U FOUND
2021/03/23 08:54:51  RFID Entry Check the part and try again, NO L OR U FOUND
2021/03/23 08:54:56  RFID Entry Check the part and try again, NO L OR U FOUND
2021/03/23 08:55:01  RFID Entry Check the part and try again, NO L OR U FOUND
2021/03/23 08:55:06  RFID Entry Check the part and try again, NO L OR U FOUND
2021/03/23 08:55:11  RFID Entry Check the part and try again, NO L OR U FOUND
2021/03/23 08:55:16  RFID Entry Check the part and try again, NO L OR U FOUND
2021/03/23 08:55:21  RFID Entry Check the part and try again, NO L OR U FOUND
2021/03/23 08:55:26  RFID Entry Check the part and try again, NO L OR U FOUND
2021/03/23 08:55:31  RFID Entry Check the part and try again, NO L OR U FOUND
2021/03/23 08:55:36  RFID Entry Check the part and try again, NO L OR U FOUND
2021/03/23 08:55:41  RFID Entry Check the part and try again, NO L OR U FOUND
2021/03/23 08:55:46  RFID Entry Check the part and try again, NO L OR U FOUND
2021/03/23 08:55:51  RFID Entry Check the part and try again, NO L OR U FOUND
2021/03/23 08:55:56  RFID Entry Check the part and try again, NO L OR U FOUND
2021/03/23 08:56:01  RFID Entry Check the part and try again, NO L OR U FOUND
2021/03/23 08:56:06  RFID Entry Check the part and try again, NO L OR U FOUND
2021/03/23 08:56:11  RFID Entry Check the part and try again, NO L OR U FOUND
2021/03/23 08:56:16  RFID Entry Check the part and try again, NO L OR U FOUND
2021/03/23 08:56:21  RFID Entry Check the part and try again, NO L OR U FOUND
2021/03/23 08:56:26  RFID Entry Check the part and try again, NO L OR U FOUND
2021/03/23 08:56:31  RFID Entry Check the part and try again, NO L OR U FOUND
2021/03/23 08:56:36  RFID Entry Check the part and try again, NO L OR U FOUND
2021/03/23 08:56:41  RFID Entry Check the part and try again, NO L OR U FOUND
2021/03/23 08:56:46  RFID Entry Check the part and try again, NO L OR U FOUND
2021/03/23 08:56:51  RFID Entry Check the part and try again, NO L OR U FOUND
2021/03/23 08:56:56  RFID Entry Check the part and try again, NO L OR U FOUND
2021/03/23 08:57:01  RFID Entry Check the part and try again, NO L OR U FOUND
2021/03/23 08:57:06  RFID Entry Check the part and try again, NO L OR U FOUND
2021/03/23 08:57:11  RFID Entry Check the part and try again, NO L OR U FOUND
2021/03/23 08:57:16  RFID Entry Check the part and try again, NO L OR U FOUND
2021/03/23 08:57:21  RFID Entry Check the part and try again, NO L OR U FOUND
2021/03/23 08:57:26  RFID Entry Check the part and try again, NO L OR U FOUND
2021/03/23 08:57:31  RFID Entry Check the part and try again, NO L OR U FOUND
2021/03/23 08:57:36  RFID Entry Check the part and try again, NO L OR U FOUND
2021/03/23 08:57:41  RFID Entry Check the part and try again, NO L OR U FOUND
2021/03/23 08:57:46  RFID Entry Check the part and try again, NO L OR U FOUND
2021/03/23 08:57:51  RFID Entry Check the part and try again, NO L OR U FOUND
2021/03/23 08:57:56  RFID Entry Check the part and try again, NO L OR U FOUND
2021/03/23 08:58:01  RFID Entry Check the part and try again, NO L OR U FOUND
2021/03/23 08:58:06  RFID Entry Check the part and try again, NO L OR U FOUND
2021/03/23 08:58:11  RFID Entry Check the part and try again, NO L OR U FOUND
2021/03/23 08:58:16  RFID Entry Check the part and try again, NO L OR U FOUND
2021/03/23 08:58:21  RFID Entry Check the part and try again, NO L OR U FOUND
2021/03/23 08:58:26  RFID Entry Check the part and try again, NO L OR U FOUND
2021/03/23 08:58:31  RFID Entry Check the part and try again, NO L OR U FOUND
2021/03/23 08:58:36  RFID Entry Check the part and try again, NO L OR U FOUND
2021/03/23 08:58:41  RFID Entry Check the part and try again, NO L OR U FOUND
2021/03/23 08:58:46  RFID Entry Check the part and try again, NO L OR U FOUND
2021/03/23 08:58:51  RFID Entry Check the part and try again, NO L OR U FOUND
2021/03/23 08:58:56  RFID Entry Check the part and try again, NO L OR U FOUND
2021/03/23 08:59:01  RFID Entry Check the part and try again, NO L OR U FOUND
2021/03/23 08:59:06  RFID Entry Check the part and try again, NO L OR U FOUND
2021/03/23 08:59:11  RFID Entry Check the part and try again, NO L OR U FOUND
2021/03/23 08:59:16  RFID Entry Check the part and try again, NO L OR U FOUND
2021/03/23 08:59:21  RFID Entry Check the part and try again, NO L OR U FOUND
2021/03/23 08:59:26  RFID Entry Check the part and try again, NO L OR U FOUND
2021/03/23 08:59:31  RFID Entry Check the part and try again, NO L OR U FOUND
2021/03/23 08:59:36  RFID Entry Check the part and try again, NO L OR U FOUND
2021/03/23 08:59:41  RFID Entry Check the part and try again, NO L OR U FOUND
2021/03/23 08:59:46  RFID Entry Check the part and try again, NO L OR U FOUND
2021/03/23 08:59:51  RFID Entry Check the part and try again, NO L OR U FOUND
2021/03/23 08:59:56  RFID Entry Check the part and try again, NO L OR U FOUND
2021/03/23 09:00:01  RFID Entry Check the part and try again, NO L OR U FOUND
2021/03/23 09:00:06  RFID Entry Check the part and try again, NO L OR U FOUND
2021/03/23 09:00:11  RFID Entry Check the part and try again, NO L OR U FOUND
2021/03/23 09:00:16  RFID Entry Check the part and try again, NO L OR U FOUND
2021/03/23 09:00:21  RFID Entry Check the part and try again, NO L OR U FOUND
2021/03/23 09:00:26  RFID Entry Check the part and try again, NO L OR U FOUND
2021/03/23 09:00:31  RFID Entry Check the part and try again, NO L OR U FOUND
2021/03/23 09:00:36  RFID Entry Check the part and try again, NO L OR U FOUND
2021/03/23 09:00:41  RFID Entry Check the part and try again, NO L OR U FOUND
2021/03/23 09:00:46  RFID Entry Check the part and try again, NO L OR U FOUND
2021/03/23 09:00:51  RFID Entry Check the part and try again, NO L OR U FOUND
2021/03/23 09:00:56  RFID Entry Check the part and try again, NO L OR U FOUND
2021/03/23 09:01:01  RFID Entry Check the part and try again, NO L OR U FOUND
2021/03/23 09:01:06  RFID Entry Check the part and try again, NO L OR U FOUND
2021/03/23 09:01:11  RFID Entry Check the part and try again, NO L OR U FOUND
2021/03/23 09:01:16  RFID Entry Check the part and try again, NO L OR U FOUND
2021/03/23 09:01:21  RFID Entry Check the part and try again, NO L OR U FOUND
2021/03/23 09:01:26  RFID Entry Check the part and try again, NO L OR U FOUND
2021/03/23 09:01:31  RFID Entry Check the part and try again, NO L OR U FOUND
2021/03/23 09:01:36  RFID Entry Check the part and try again, NO L OR U FOUND
2021/03/23 09:01:41  RFID Entry Check the part and try again, NO L OR U FOUND
2021/03/23 09:01:46  RFID Entry Check the part and try again, NO L OR U FOUND
2021/03/23 09:01:51  RFID Entry Check the part and try again, NO L OR U FOUND
2021/03/23 09:01:56  RFID Entry Check the part and try again, NO L OR U FOUND
2021/03/23 09:02:01  RFID Entry Check the part and try again, NO L OR U FOUND
2021/03/23 09:02:06  RFID Entry Check the part and try again, NO L OR U FOUND
2021/03/23 09:02:11  RFID Entry Check the part and try again, NO L OR U FOUND
2021/03/23 09:02:16  RFID Entry Check the part and try again, NO L OR U FOUND
2021/03/23 09:02:21  RFID Entry Check the part and try again, NO L OR U FOUND
2021/03/23 09:02:26  RFID Entry Check the part and try again, NO L OR U FOUND
2021/03/23 09:02:31  RFID Entry Check the part and try again, NO L OR U FOUND
2021/03/23 09:02:36  RFID Entry Check the part and try again, NO L OR U FOUND
2021/03/23 09:02:41  RFID Entry Check the part and try again, NO L OR U FOUND
2021/03/23 09:02:46  RFID Entry Check the part and try again, NO L OR U FOUND
2021/03/23 09:02:51  RFID Entry Check the part and try again, NO L OR U FOUND
2021/03/23 09:02:56  RFID Entry Check the part and try again, NO L OR U FOUND
2021/03/23 09:03:01  RFID Entry Check the part and try again, NO L OR U FOUND
2021/03/23 09:03:06  RFID Entry Check the part and try again, NO L OR U FOUND
2021/03/23 09:03:11  RFID Entry Check the part and try again, NO L OR U FOUND
2021/03/23 09:03:16  RFID Entry Check the part and try again, NO L OR U FOUND
2021/03/23 09:03:21  RFID Entry Check the part and try again, NO L OR U FOUND
2021/03/23 09:03:26  RFID Entry Check the part and try again, NO L OR U FOUND
2021/03/23 09:03:31  RFID Entry Check the part and try again, NO L OR U FOUND
2021/03/23 09:03:36  RFID Entry Check the part and try again, NO L OR U FOUND
2021/03/23 09:03:41  RFID Entry Check the part and try again, NO L OR U FOUND
2021/03/23 09:03:46  RFID Entry Check the part and try again, NO L OR U FOUND
2021/03/23 09:03:51  RFID Entry Check the part and try again, NO L OR U FOUND
2021/03/23 09:03:56  RFID Entry Check the part and try again, NO L OR U FOUND
2021/03/23 09:04:01  RFID Entry Check the part and try again, NO L OR U FOUND
2021/03/23 09:04:06  RFID Entry Check the part and try again, NO L OR U FOUND
2021/03/23 09:04:11  RFID Entry Check the part and try again, NO L OR U FOUND
2021/03/23 09:04:16  RFID Entry Check the part and try again, NO L OR U FOUND
2021/03/23 09:04:21  RFID Entry Check the part and try again, NO L OR U FOUND
2021/03/23 09:04:26  RFID Entry Check the part and try again, NO L OR U FOUND
2021/03/23 09:04:31  RFID Entry Check the part and try again, NO L OR U FOUND
2021/03/23 09:04:36  RFID Entry Check the part and try again, NO L OR U FOUND
2021/03/23 09:04:41  RFID Entry Check the part and try again, NO L OR U FOUND
2021/03/23 09:04:46  RFID Entry Check the part and try again, NO L OR U FOUND
2021/03/23 09:04:51  RFID Entry Check the part and try again, NO L OR U FOUND
2021/03/23 09:04:56  RFID Entry Check the part and try again, NO L OR U FOUND
2021/03/23 09:05:01  RFID Entry Check the part and try again, NO L OR U FOUND
2021/03/23 09:05:06  RFID Entry Check the part and try again, NO L OR U FOUND
2021/03/23 09:05:11  RFID Entry Check the part and try again, NO L OR U FOUND
2021/03/23 09:05:16  RFID Entry Check the part and try again, NO L OR U FOUND
2021/03/23 09:05:21  RFID Entry Check the part and try again, NO L OR U FOUND
2021/03/23 09:05:26  RFID Entry Check the part and try again, NO L OR U FOUND
2021/03/23 09:05:31  RFID Entry Check the part and try again, NO L OR U FOUND
2021/03/23 09:05:36  RFID Entry Check the part and try again, NO L OR U FOUND
2021/03/23 09:05:41  RFID Entry Check the part and try again, NO L OR U FOUND
2021/03/23 09:05:46  RFID Entry Check the part and try again, NO L OR U FOUND
2021/03/23 09:05:51  RFID Entry Check the part and try again, NO L OR U FOUND
2021/03/23 09:05:56  RFID Entry Check the part and try again, NO L OR U FOUND
2021/03/23 09:06:01  RFID Entry Check the part and try again, NO L OR U FOUND
2021/03/23 09:06:06  RFID Entry Check the part and try again, NO L OR U FOUND
2021/03/23 09:06:11  RFID Entry Check the part and try again, NO L OR U FOUND
2021/03/23 09:06:16  RFID Entry Check the part and try again, NO L OR U FOUND
2021/03/23 09:06:21  RFID Entry Check the part and try again, NO L OR U FOUND
2021/03/23 09:06:26  RFID Entry Check the part and try again, NO L OR U FOUND
2021/03/23 09:06:31  RFID Entry Check the part and try again, NO L OR U FOUND
2021/03/23 09:06:36  RFID Entry Check the part and try again, NO L OR U FOUND
2021/03/23 09:06:41  RFID Entry Check the part and try again, NO L OR U FOUND
2021/03/23 09:06:46  RFID Entry Check the part and try again, NO L OR U FOUND
2021/03/23 09:06:51  RFID Entry Check the part and try again, NO L OR U FOUND
2021/03/23 09:06:56  RFID Entry Check the part and try again, NO L OR U FOUND
2021/03/23 09:07:01  RFID Entry Check the part and try again, NO L OR U FOUND
2021/03/23 09:07:06  RFID Entry Check the part and try again, NO L OR U FOUND
2021/03/23 09:07:11  RFID Entry Check the part and try again, NO L OR U FOUND
2021/03/23 09:07:16  RFID Entry Check the part and try again, NO L OR U FOUND
2021/03/23 09:07:21  RFID Entry Check the part and try again, NO L OR U FOUND
2021/03/23 09:07:26  RFID Entry Check the part and try again, NO L OR U FOUND
2021/03/23 09:07:31  RFID Entry Check the part and try again, NO L OR U FOUND
2021/03/23 09:07:36  RFID Entry Check the part and try again, NO L OR U FOUND
2021/03/23 09:07:41  RFID Entry Check the part and try again, NO L OR U FOUND
2021/03/23 09:07:46  RFID Entry Check the part and try again, NO L OR U FOUND
2021/03/23 09:07:51  RFID Entry Check the part and try again, NO L OR U FOUND
2021/03/23 09:07:56  RFID Entry Check the part and try again, NO L OR U FOUND
2021/03/23 09:08:01  RFID Entry Check the part and try again, NO L OR U FOUND
2021/03/23 09:08:06  RFID Entry Check the part and try again, NO L OR U FOUND
2021/03/23 09:08:11  RFID Entry Check the part and try again, NO L OR U FOUND
2021/03/23 09:08:16  RFID Entry Check the part and try again, NO L OR U FOUND
2021/03/23 09:08:21  RFID Entry Check the part and try again, NO L OR U FOUND
2021/03/23 09:08:26  RFID Entry Check the part and try again, NO L OR U FOUND
2021/03/23 09:08:31  RFID Entry Check the part and try again, NO L OR U FOUND
2021/03/23 09:08:36  RFID Entry Check the part and try again, NO L OR U FOUND
2021/03/23 09:08:41  RFID Entry Check the part and try again, NO L OR U FOUND
2021/03/23 09:08:46  RFID Entry Check the part and try again, NO L OR U FOUND
2021/03/23 09:08:51  RFID Entry Check the part and try again, NO L OR U FOUND
2021/03/23 09:08:56  RFID Entry Check the part and try again, NO L OR U FOUND
2021/03/23 09:09:01  RFID Entry Check the part and try again, NO L OR U FOUND
2021/03/23 09:09:06  RFID Entry Check the part and try again, NO L OR U FOUND
2021/03/23 09:09:11  RFID Entry Check the part and try again, NO L OR U FOUND
2021/03/23 09:09:16  RFID Entry Check the part and try again, NO L OR U FOUND
2021/03/23 09:09:21  RFID Entry Check the part and try again, NO L OR U FOUND
2021/03/23 09:09:26  RFID Entry Check the part and try again, NO L OR U FOUND
2021/03/23 09:09:31  RFID Entry Check the part and try again, NO L OR U FOUND
2021/03/23 09:09:36  RFID Entry Check the part and try again, NO L OR U FOUND
2021/03/23 09:09:41  RFID Entry Check the part and try again, NO L OR U FOUND
2021/03/23 09:09:46  RFID Entry Check the part and try again, NO L OR U FOUND
2021/03/23 09:09:51  RFID Entry Check the part and try again, NO L OR U FOUND
2021/03/23 09:09:56  RFID Entry Check the part and try again, NO L OR U FOUND
2021/03/23 09:10:01  RFID Entry Check the part and try again, NO L OR U FOUND
2021/03/23 09:10:06  RFID Entry Check the part and try again, NO L OR U FOUND
2021/03/23 09:10:11  RFID Entry Check the part and try again, NO L OR U FOUND
2021/03/23 09:10:16  RFID Entry Check the part and try again, NO L OR U FOUND
2021/03/23 09:10:21  RFID Entry Check the part and try again, NO L OR U FOUND
2021/03/23 09:10:26  RFID Entry Check the part and try again, NO L OR U FOUND
2021/03/23 09:10:31  RFID Entry Check the part and try again, NO L OR U FOUND
2021/03/23 09:10:36  RFID Entry Check the part and try again, NO L OR U FOUND
2021/03/23 09:10:41  RFID Entry Check the part and try again, NO L OR U FOUND
2021/03/23 09:10:46  RFID Entry Check the part and try again, NO L OR U FOUND
2021/03/23 09:10:51  RFID Entry Check the part and try again, NO L OR U FOUND
2021/03/23 09:10:56  RFID Entry Check the part and try again, NO L OR U FOUND
2021/03/23 09:11:01  RFID Entry Check the part and try again, NO L OR U FOUND
2021/03/23 09:11:06  RFID Entry Check the part and try again, NO L OR U FOUND
2021/03/23 09:11:11  RFID Entry Check the part and try again, NO L OR U FOUND
2021/03/23 09:11:16  RFID Entry Check the part and try again, NO L OR U FOUND
2021/03/23 09:11:21  RFID Entry Check the part and try again, NO L OR U FOUND
2021/03/23 09:11:26  RFID Entry Check the part and try again, NO L OR U FOUND
2021/03/23 09:11:31  RFID Entry Check the part and try again, NO L OR U FOUND
2021/03/23 09:11:36  RFID Entry Check the part and try again, NO L OR U FOUND
2021/03/23 09:11:41  RFID Entry Check the part and try again, NO L OR U FOUND
2021/03/23 09:11:46  RFID Entry Check the part and try again, NO L OR U FOUND
2021/03/23 09:11:51  RFID Entry Check the part and try again, NO L OR U FOUND
2021/03/23 09:11:56  RFID Entry Check the part and try again, NO L OR U FOUND
2021/03/23 09:12:01  RFID Entry Check the part and try again, NO L OR U FOUND
2021/03/23 09:12:06  RFID Entry Check the part and try again, NO L OR U FOUND
2021/03/23 09:12:11  RFID Entry Check the part and try again, NO L OR U FOUND
2021/03/23 09:12:16  RFID Entry Check the part and try again, NO L OR U FOUND
2021/03/23 09:12:21  RFID Entry Check the part and try again, NO L OR U FOUND
2021/03/23 09:12:26  RFID Entry Check the part and try again, NO L OR U FOUND
2021/03/23 09:12:31  RFID Entry Check the part and try again, NO L OR U FOUND
2021/03/23 09:12:36  RFID Entry Check the part and try again, NO L OR U FOUND
2021/03/23 09:12:41  RFID Entry Check the part and try again, NO L OR U FOUND
2021/03/23 09:12:46  RFID Entry Check the part and try again, NO L OR U FOUND
2021/03/23 09:12:51  RFID Entry Check the part and try again, NO L OR U FOUND
2021/03/23 09:12:56  RFID Entry Check the part and try again, NO L OR U FOUND
2021/03/23 09:13:01  RFID Entry Check the part and try again, NO L OR U FOUND
2021/03/23 09:13:06  RFID Entry Check the part and try again, NO L OR U FOUND
2021/03/23 09:13:11  RFID Entry Check the part and try again, NO L OR U FOUND
2021/03/23 09:13:16  RFID Entry Check the part and try again, NO L OR U FOUND
2021/03/23 09:13:21  RFID Entry Check the part and try again, NO L OR U FOUND
2021/03/23 09:13:26  RFID Entry Check the part and try again, NO L OR U FOUND
2021/03/23 09:13:31  RFID Entry Check the part and try again, NO L OR U FOUND
2021/03/23 09:13:36  RFID Entry Check the part and try again, NO L OR U FOUND
2021/03/23 09:13:41  RFID Entry Check the part and try again, NO L OR U FOUND
2021/03/23 09:13:46  RFID Entry Check the part and try again, NO L OR U FOUND
2021/03/23 09:13:51  RFID Entry Check the part and try again, NO L OR U FOUND
2021/03/23 09:13:56  RFID Entry Check the part and try again, NO L OR U FOUND
2021/03/23 09:14:01  RFID Entry Check the part and try again, NO L OR U FOUND
2021/03/23 09:14:06  RFID Entry Check the part and try again, NO L OR U FOUND
2021/03/23 09:14:11  RFID Entry Check the part and try again, NO L OR U FOUND
2021/03/23 09:14:16  RFID Entry Check the part and try again, NO L OR U FOUND
2021/03/23 09:14:21  RFID Entry Check the part and try again, NO L OR U FOUND
2021/03/23 09:14:26  RFID Entry Check the part and try again, NO L OR U FOUND
2021/03/23 09:14:31  RFID Entry Check the part and try again, NO L OR U FOUND
2021/03/23 09:14:36  RFID Entry Check the part and try again, NO L OR U FOUND
2021/03/23 09:14:41  RFID Entry Check the part and try again, NO L OR U FOUND
2021/03/23 09:14:46  RFID Entry Check the part and try again, NO L OR U FOUND
2021/03/23 09:14:51  RFID Entry Check the part and try again, NO L OR U FOUND
2021/03/23 09:14:56  RFID Entry Check the part and try again, NO L OR U FOUND
2021/03/23 09:15:01  RFID Entry Check the part and try again, NO L OR U FOUND
2021/03/23 09:15:06  RFID Entry Check the part and try again, NO L OR U FOUND
2021/03/23 09:15:11  RFID Entry Check the part and try again, NO L OR U FOUND
2021/03/23 09:15:16  RFID Entry Check the part and try again, NO L OR U FOUND
2021/03/23 09:15:21  RFID Entry Check the part and try again, NO L OR U FOUND
2021/03/23 09:15:26  RFID Entry Check the part and try again, NO L OR U FOUND
2021/03/23 09:15:31  RFID Entry Check the part and try again, NO L OR U FOUND
2021/03/23 09:15:36  RFID Entry Check the part and try again, NO L OR U FOUND
2021/03/23 09:15:41  RFID Entry Check the part and try again, NO L OR U FOUND
2021/03/23 09:15:46  RFID Entry Check the part and try again, NO L OR U FOUND
2021/03/23 09:15:51  RFID Entry Check the part and try again, NO L OR U FOUND
2021/03/23 09:15:56  RFID Entry Check the part and try again, NO L OR U FOUND
2021/03/23 09:16:01  RFID Entry Check the part and try again, NO L OR U FOUND
2021/03/23 09:16:06  RFID Entry Check the part and try again, NO L OR U FOUND
2021/03/23 09:16:11  RFID Entry Check the part and try again, NO L OR U FOUND
2021/03/23 09:16:16  RFID Entry Check the part and try again, NO L OR U FOUND
2021/03/23 09:16:21  RFID Entry Check the part and try again, NO L OR U FOUND
2021/03/23 09:16:26  RFID Entry Check the part and try again, NO L OR U FOUND
2021/03/23 09:16:31  RFID Entry Check the part and try again, NO L OR U FOUND
2021/03/23 09:16:36  RFID Entry Check the part and try again, NO L OR U FOUND
2021/03/23 09:16:41  RFID Entry Check the part and try again, NO L OR U FOUND
2021/03/23 09:16:46  RFID Entry Check the part and try again, NO L OR U FOUND
2021/03/23 09:16:51  RFID Entry Check the part and try again, NO L OR U FOUND
2021/03/23 09:16:56  RFID Entry Check the part and try again, NO L OR U FOUND
2021/03/23 09:17:01  RFID Entry Check the part and try again, NO L OR U FOUND
2021/03/23 09:17:06  RFID Entry Check the part and try again, NO L OR U FOUND
2021/03/23 09:17:11  RFID Entry Check the part and try again, NO L OR U FOUND
2021/03/23 09:17:16  RFID Entry Check the part and try again, NO L OR U FOUND
2021/03/23 09:17:21  RFID Entry Check the part and try again, NO L OR U FOUND
2021/03/23 09:17:26  RFID Entry Check the part and try again, NO L OR U FOUND
2021/03/23 09:17:31  RFID Entry Check the part and try again, NO L OR U FOUND
2021/03/23 09:17:36  RFID Entry Check the part and try again, NO L OR U FOUND
2021/03/23 09:17:41  RFID Entry Check the part and try again, NO L OR U FOUND
2021/03/23 09:17:46  RFID Entry Check the part and try again, NO L OR U FOUND
2021/03/23 09:17:51  RFID Entry Check the part and try again, NO L OR U FOUND
2021/03/23 09:17:56  RFID Entry Check the part and try again, NO L OR U FOUND
2021/03/23 09:18:01  RFID Entry Check the part and try again, NO L OR U FOUND
2021/03/23 09:18:06  RFID Entry Check the part and try again, NO L OR U FOUND
2021/03/23 09:18:11  RFID Entry Check the part and try again, NO L OR U FOUND
2021/03/23 09:18:16  RFID Entry Check the part and try again, NO L OR U FOUND
2021/03/23 09:18:21  RFID Entry Check the part and try again, NO L OR U FOUND
2021/03/23 09:18:26  RFID Entry Check the part and try again, NO L OR U FOUND
2021/03/23 09:18:31  RFID Entry Check the part and try again, NO L OR U FOUND
2021/03/23 09:18:36  RFID Entry Check the part and try again, NO L OR U FOUND
2021/03/23 09:18:41  RFID Entry Check the part and try again, NO L OR U FOUND
2021/03/23 09:18:46  RFID Entry Check the part and try again, NO L OR U FOUND
2021/03/23 09:18:51  RFID Entry Check the part and try again, NO L OR U FOUND
2021/03/23 09:18:56  RFID Entry Check the part and try again, NO L OR U FOUND
2021/03/23 09:19:01  RFID Entry Check the part and try again, NO L OR U FOUND
2021/03/23 09:19:06  RFID Entry Check the part and try again, NO L OR U FOUND
2021/03/23 09:19:11  RFID Entry Check the part and try again, NO L OR U FOUND
2021/03/23 09:19:16  RFID Entry Check the part and try again, NO L OR U FOUND
2021/03/23 09:19:21  RFID Entry Check the part and try again, NO L OR U FOUND
2021/03/23 09:19:26  RFID Entry Check the part and try again, NO L OR U FOUND
2021/03/23 09:19:31  RFID Entry Check the part and try again, NO L OR U FOUND
2021/03/23 09:19:36  RFID Entry Check the part and try again, NO L OR U FOUND
2021/03/23 09:19:41  RFID Entry Check the part and try again, NO L OR U FOUND
2021/03/23 09:19:46  RFID Entry Check the part and try again, NO L OR U FOUND
2021/03/23 09:19:51  RFID Entry Check the part and try again, NO L OR U FOUND
2021/03/23 09:19:56  RFID Entry Check the part and try again, NO L OR U FOUND
2021/03/23 09:20:01  RFID Entry Check the part and try again, NO L OR U FOUND
2021/03/23 09:20:06  RFID Entry Check the part and try again, NO L OR U FOUND
2021/03/23 09:20:11  RFID Entry Check the part and try again, NO L OR U FOUND
2021/03/23 09:20:16  RFID Entry Check the part and try again, NO L OR U FOUND
2021/03/23 09:20:21  RFID Entry Check the part and try again, NO L OR U FOUND
2021/03/23 09:20:26  RFID Entry Check the part and try again, NO L OR U FOUND
2021/03/23 09:20:31  RFID Entry Check the part and try again, NO L OR U FOUND
2021/03/23 09:20:36  RFID Entry Check the part and try again, NO L OR U FOUND
2021/03/23 09:20:41  RFID Entry Check the part and try again, NO L OR U FOUND
2021/03/23 09:20:46  RFID Entry Check the part and try again, NO L OR U FOUND
2021/03/23 09:20:51  RFID Entry Check the part and try again, NO L OR U FOUND
2021/03/23 09:20:56  RFID Entry Check the part and try again, NO L OR U FOUND
2021/03/23 09:21:01  RFID Entry Check the part and try again, NO L OR U FOUND
2021/03/23 09:21:06  RFID Entry Check the part and try again, NO L OR U FOUND
2021/03/23 09:21:11  RFID Entry Check the part and try again, NO L OR U FOUND
2021/03/23 09:21:16  RFID Entry Check the part and try again, NO L OR U FOUND
2021/03/23 09:21:21  RFID Entry Check the part and try again, NO L OR U FOUND
2021/03/23 09:21:26  RFID Entry Check the part and try again, NO L OR U FOUND
2021/03/23 09:21:31  RFID Entry Check the part and try again, NO L OR U FOUND
2021/03/23 09:21:36  RFID Entry Check the part and try again, NO L OR U FOUND
2021/03/23 09:21:41  RFID Entry Check the part and try again, NO L OR U FOUND
2021/03/23 09:21:46  RFID Entry Check the part and try again, NO L OR U FOUND
2021/03/23 09:21:51  RFID Entry Check the part and try again, NO L OR U FOUND
2021/03/23 09:21:56  RFID Entry Check the part and try again, NO L OR U FOUND
2021/03/23 09:22:01  RFID Entry Check the part and try again, NO L OR U FOUND
2021/03/23 09:22:06  RFID Entry Check the part and try again, NO L OR U FOUND
2021/03/23 09:22:11  RFID Entry Check the part and try again, NO L OR U FOUND
2021/03/23 09:22:16  RFID Entry Check the part and try again, NO L OR U FOUND
2021/03/23 09:22:21  RFID Entry Check the part and try again, NO L OR U FOUND
2021/03/23 09:22:26  RFID Entry Check the part and try again, NO L OR U FOUND
2021/03/23 09:22:31  RFID Entry Check the part and try again, NO L OR U FOUND
2021/03/23 09:22:36  RFID Entry Check the part and try again, NO L OR U FOUND
2021/03/23 09:22:41  RFID Entry Check the part and try again, NO L OR U FOUND
2021/03/23 09:22:46  RFID Entry Check the part and try again, NO L OR U FOUND
2021/03/23 09:22:51  RFID Entry Check the part and try again, NO L OR U FOUND
2021/03/23 09:22:56  RFID Entry Check the part and try again, NO L OR U FOUND
2021/03/23 09:23:01  RFID Entry Check the part and try again, NO L OR U FOUND
2021/03/23 09:23:06  RFID Entry Check the part and try again, NO L OR U FOUND
2021/03/23 09:23:11  RFID Entry Check the part and try again, NO L OR U FOUND
2021/03/23 09:23:16  RFID Entry Check the part and try again, NO L OR U FOUND
2021/03/23 09:23:21  RFID Entry Check the part and try again, NO L OR U FOUND
2021/03/23 09:23:26  RFID Entry Check the part and try again, NO L OR U FOUND
2021/03/23 09:23:31  RFID Entry Check the part and try again, NO L OR U FOUND
2021/03/23 09:23:36  RFID Entry Check the part and try again, NO L OR U FOUND
2021/03/23 09:23:41  RFID Entry Check the part and try again, NO L OR U FOUND
2021/03/23 09:23:46  RFID Entry Check the part and try again, NO L OR U FOUND
2021/03/23 09:23:51  RFID Entry Check the part and try again, NO L OR U FOUND
2021/03/23 09:23:56  RFID Entry Check the part and try again, NO L OR U FOUND
2021/03/23 09:24:01  RFID Entry Check the part and try again, NO L OR U FOUND
2021/03/23 09:24:06  RFID Entry Check the part and try again, NO L OR U FOUND
2021/03/23 09:24:11  RFID Entry Check the part and try again, NO L OR U FOUND
2021/03/23 09:24:16  RFID Entry Check the part and try again, NO L OR U FOUND
2021/03/23 09:24:21  RFID Entry Check the part and try again, NO L OR U FOUND
2021/03/23 09:24:26  RFID Entry Check the part and try again, NO L OR U FOUND
2021/03/23 09:24:31  RFID Entry Check the part and try again, NO L OR U FOUND
2021/03/23 09:24:36  RFID Entry Check the part and try again, NO L OR U FOUND
2021/03/23 09:24:41  RFID Entry Check the part and try again, NO L OR U FOUND
2021/03/23 09:24:46  RFID Entry Check the part and try again, NO L OR U FOUND
2021/03/23 09:24:51  RFID Entry Check the part and try again, NO L OR U FOUND
2021/03/23 09:24:56  RFID Entry Check the part and try again, NO L OR U FOUND
2021/03/23 09:25:01  RFID Entry Check the part and try again, NO L OR U FOUND
2021/03/23 09:25:06  RFID Entry Check the part and try again, NO L OR U FOUND
2021/03/23 09:25:11  RFID Entry Check the part and try again, NO L OR U FOUND
2021/03/23 09:25:16  RFID Entry Check the part and try again, NO L OR U FOUND
2021/03/23 09:25:21  RFID Entry Check the part and try again, NO L OR U FOUND
2021/03/23 09:25:26  RFID Entry Check the part and try again, NO L OR U FOUND
2021/03/23 09:25:31  RFID Entry Check the part and try again, NO L OR U FOUND
2021/03/23 09:25:36  RFID Entry Check the part and try again, NO L OR U FOUND
2021/03/23 09:25:41  RFID Entry Check the part and try again, NO L OR U FOUND
2021/03/23 09:25:46  RFID Entry Check the part and try again, NO L OR U FOUND
2021/03/23 09:25:51  RFID Entry Check the part and try again, NO L OR U FOUND
2021/03/23 09:25:56  RFID Entry Check the part and try again, NO L OR U FOUND
2021/03/23 09:26:01  RFID Entry Check the part and try again, NO L OR U FOUND
2021/03/23 09:26:06  RFID Entry Check the part and try again, NO L OR U FOUND
2021/03/23 09:26:11  RFID Entry Check the part and try again, NO L OR U FOUND
2021/03/23 09:26:16  RFID Entry Check the part and try again, NO L OR U FOUND
2021/03/23 09:26:21  RFID Entry Check the part and try again, NO L OR U FOUND
2021/03/23 09:26:26  RFID Entry Check the part and try again, NO L OR U FOUND
2021/03/23 09:26:31  RFID Entry Check the part and try again, NO L OR U FOUND
2021/03/23 09:26:36  RFID Entry Check the part and try again, NO L OR U FOUND
2021/03/23 09:26:41  RFID Entry Check the part and try again, NO L OR U FOUND
2021/03/23 09:26:46  RFID Entry Check the part and try again, NO L OR U FOUND
2021/03/23 09:26:51  RFID Entry Check the part and try again, NO L OR U FOUND
2021/03/23 09:26:56  RFID Entry Check the part and try again, NO L OR U FOUND
2021/03/23 09:27:01  RFID Entry Check the part and try again, NO L OR U FOUND
2021/03/23 09:27:06  RFID Entry Check the part and try again, NO L OR U FOUND
2021/03/23 09:27:11  RFID Entry Check the part and try again, NO L OR U FOUND
2021/03/23 09:27:16  RFID Entry Check the part and try again, NO L OR U FOUND
2021/03/23 09:27:21  RFID Entry Check the part and try again, NO L OR U FOUND
2021/03/23 09:27:26  RFID Entry Check the part and try again, NO L OR U FOUND
2021/03/23 09:27:31  RFID Entry Check the part and try again, NO L OR U FOUND
2021/03/23 09:27:36  RFID Entry Check the part and try again, NO L OR U FOUND
2021/03/23 09:27:41  RFID Entry Check the part and try again, NO L OR U FOUND
2021/03/23 09:27:46  RFID Entry Check the part and try again, NO L OR U FOUND
2021/03/23 09:27:51  RFID Entry Check the part and try again, NO L OR U FOUND
2021/03/23 09:27:56  RFID Entry Check the part and try again, NO L OR U FOUND
2021/03/23 09:28:01  RFID Entry Check the part and try again, NO L OR U FOUND
2021/03/23 09:28:06  RFID Entry Check the part and try again, NO L OR U FOUND
2021/03/23 09:28:11  RFID Entry Check the part and try again, NO L OR U FOUND
2021/03/23 09:28:16  RFID Entry Check the part and try again, NO L OR U FOUND
2021/03/23 09:28:21  RFID Entry Check the part and try again, NO L OR U FOUND
2021/03/23 09:28:26  RFID Entry Check the part and try again, NO L OR U FOUND
2021/03/23 09:28:31  RFID Entry Check the part and try again, NO L OR U FOUND
2021/03/23 09:28:36  RFID Entry Check the part and try again, NO L OR U FOUND
2021/03/23 09:28:41  RFID Entry Check the part and try again, NO L OR U FOUND
2021/03/23 09:28:46  RFID Entry Check the part and try again, NO L OR U FOUND
2021/03/23 09:28:51  RFID Entry Check the part and try again, NO L OR U FOUND
2021/03/23 09:28:56  RFID Entry Check the part and try again, NO L OR U FOUND
2021/03/23 09:29:01  RFID Entry Check the part and try again, NO L OR U FOUND
2021/03/23 09:29:06  RFID Entry Check the part and try again, NO L OR U FOUND
2021/03/23 09:29:11  RFID Entry Check the part and try again, NO L OR U FOUND
2021/03/23 09:29:16  RFID Entry Check the part and try again, NO L OR U FOUND
2021/03/23 09:29:21  RFID Entry Check the part and try again, NO L OR U FOUND
2021/03/23 09:29:26  RFID Entry Check the part and try again, NO L OR U FOUND
2021/03/23 09:29:31  RFID Entry Check the part and try again, NO L OR U FOUND
2021/03/23 09:29:36  RFID Entry Check the part and try again, NO L OR U FOUND
2021/03/23 09:29:41  RFID Entry Check the part and try again, NO L OR U FOUND
2021/03/23 09:29:46  RFID Entry Check the part and try again, NO L OR U FOUND
2021/03/23 09:29:51  RFID Entry Check the part and try again, NO L OR U FOUND
2021/03/23 09:29:56  RFID Entry Check the part and try again, NO L OR U FOUND
2021/03/23 09:30:01  RFID Entry Check the part and try again, NO L OR U FOUND
2021/03/23 09:30:06  RFID Entry Check the part and try again, NO L OR U FOUND
2021/03/23 09:30:11  RFID Entry Check the part and try again, NO L OR U FOUND
2021/03/23 09:30:16  RFID Entry Check the part and try again, NO L OR U FOUND
2021/03/23 09:30:21  RFID Entry Check the part and try again, NO L OR U FOUND
2021/03/23 09:30:26  RFID Entry Check the part and try again, NO L OR U FOUND
2021/03/23 09:30:31  RFID Entry Check the part and try again, NO L OR U FOUND
2021/03/23 09:30:36  RFID Entry Check the part and try again, NO L OR U FOUND
2021/03/23 09:30:41  RFID Entry Check the part and try again, NO L OR U FOUND
2021/03/23 09:30:46  RFID Entry Check the part and try again, NO L OR U FOUND
2021/03/23 09:30:51  RFID Entry Check the part and try again, NO L OR U FOUND
2021/03/23 09:30:56  RFID Entry Check the part and try again, NO L OR U FOUND
2021/03/23 09:31:01  RFID Entry Check the part and try again, NO L OR U FOUND
2021/03/23 09:31:06  RFID Entry Check the part and try again, NO L OR U FOUND
2021/03/23 09:31:11  RFID Entry Check the part and try again, NO L OR U FOUND
2021/03/23 09:31:16  RFID Entry Check the part and try again, NO L OR U FOUND
2021/03/23 09:31:21  RFID Entry Check the part and try again, NO L OR U FOUND
2021/03/23 09:31:26  RFID Entry Check the part and try again, NO L OR U FOUND
2021/03/23 09:31:31  RFID Entry Check the part and try again, NO L OR U FOUND
2021/03/23 09:31:36  RFID Entry Check the part and try again, NO L OR U FOUND
2021/03/23 09:31:41  RFID Entry Check the part and try again, NO L OR U FOUND
2021/03/23 09:31:46  RFID Entry Check the part and try again, NO L OR U FOUND
2021/03/23 09:31:51  RFID Entry Check the part and try again, NO L OR U FOUND
2021/03/23 09:31:56  RFID Entry Check the part and try again, NO L OR U FOUND
2021/03/23 09:32:01  RFID Entry Check the part and try again, NO L OR U FOUND
2021/03/23 09:32:06  RFID Entry Check the part and try again, NO L OR U FOUND
2021/03/23 09:32:11  RFID Entry Check the part and try again, NO L OR U FOUND
2021/03/23 09:32:16  RFID Entry Check the part and try again, NO L OR U FOUND
2021/03/23 09:32:21  RFID Entry Check the part and try again, NO L OR U FOUND
2021/03/23 09:32:26  RFID Entry Check the part and try again, NO L OR U FOUND
2021/03/23 09:32:31  RFID Entry Check the part and try again, NO L OR U FOUND
2021/03/23 09:32:36  RFID Entry Check the part and try again, NO L OR U FOUND
2021/03/23 09:32:41  RFID Entry Check the part and try again, NO L OR U FOUND
2021/03/23 09:32:46  RFID Entry Check the part and try again, NO L OR U FOUND
2021/03/23 09:32:51  RFID Entry Check the part and try again, NO L OR U FOUND
2021/03/23 09:32:56  RFID Entry Check the part and try again, NO L OR U FOUND
2021/03/23 09:33:01  RFID Entry Check the part and try again, NO L OR U FOUND
2021/03/23 09:33:06  RFID Entry Check the part and try again, NO L OR U FOUND
2021/03/23 09:33:11  RFID Entry Check the part and try again, NO L OR U FOUND
2021/03/23 09:33:16  RFID Entry Check the part and try again, NO L OR U FOUND
2021/03/23 09:33:21  RFID Entry Check the part and try again, NO L OR U FOUND
2021/03/23 09:33:26  RFID Entry Check the part and try again, NO L OR U FOUND
2021/03/23 09:33:31  RFID Entry Check the part and try again, NO L OR U FOUND
2021/03/23 09:33:36  RFID Entry Check the part and try again, NO L OR U FOUND
2021/03/23 09:33:41  RFID Entry Check the part and try again, NO L OR U FOUND
2021/03/23 09:33:46  RFID Entry Check the part and try again, NO L OR U FOUND
2021/03/23 09:33:51  RFID Entry Check the part and try again, NO L OR U FOUND
2021/03/23 09:33:56  RFID Entry Check the part and try again, NO L OR U FOUND
2021/03/23 09:34:01  RFID Entry Check the part and try again, NO L OR U FOUND
2021/03/23 09:34:06  RFID Entry Check the part and try again, NO L OR U FOUND
2021/03/23 09:34:11  RFID Entry Check the part and try again, NO L OR U FOUND
2021/03/23 09:34:16  RFID Entry Check the part and try again, NO L OR U FOUND
2021/03/23 09:34:21  RFID Entry Check the part and try again, NO L OR U FOUND
2021/03/23 09:34:26  RFID Entry Check the part and try again, NO L OR U FOUND
2021/03/23 09:34:31  RFID Entry Check the part and try again, NO L OR U FOUND
2021/03/23 09:34:36  RFID Entry Check the part and try again, NO L OR U FOUND
2021/03/23 09:34:41  RFID Entry Check the part and try again, NO L OR U FOUND
2021/03/23 09:34:46  RFID Entry Check the part and try again, NO L OR U FOUND
2021/03/23 09:34:51  RFID Entry Check the part and try again, NO L OR U FOUND
2021/03/23 09:34:56  RFID Entry Check the part and try again, NO L OR U FOUND
2021/03/23 09:35:01  RFID Entry Check the part and try again, NO L OR U FOUND
2021/03/23 09:35:06  RFID Entry Check the part and try again, NO L OR U FOUND
2021/03/23 09:35:11  RFID Entry Check the part and try again, NO L OR U FOUND
2021/03/23 09:35:16  RFID Entry Check the part and try again, NO L OR U FOUND
2021/03/23 09:35:21  RFID Entry Check the part and try again, NO L OR U FOUND
2021/03/23 09:35:26  RFID Entry Check the part and try again, NO L OR U FOUND
2021/03/23 09:35:31  RFID Entry Check the part and try again, NO L OR U FOUND
2021/03/23 09:35:36  RFID Entry Check the part and try again, NO L OR U FOUND
2021/03/23 09:35:41  RFID Entry Check the part and try again, NO L OR U FOUND
2021/03/23 09:35:46  RFID Entry Check the part and try again, NO L OR U FOUND
2021/03/23 09:35:51  RFID Entry Check the part and try again, NO L OR U FOUND
2021/03/23 09:35:56  RFID Entry Check the part and try again, NO L OR U FOUND
2021/03/23 09:36:01  RFID Entry Check the part and try again, NO L OR U FOUND
2021/03/23 09:36:06  RFID Entry Check the part and try again, NO L OR U FOUND
2021/03/23 09:36:11  RFID Entry Check the part and try again, NO L OR U FOUND
2021/03/23 09:36:16  RFID Entry Check the part and try again, NO L OR U FOUND
2021/03/23 09:36:21  RFID Entry Check the part and try again, NO L OR U FOUND
2021/03/23 09:36:26  RFID Entry Check the part and try again, NO L OR U FOUND
2021/03/23 09:36:31  RFID Entry Check the part and try again, NO L OR U FOUND
2021/03/23 09:36:36  RFID Entry Check the part and try again, NO L OR U FOUND
2021/03/23 09:36:41  RFID Entry Check the part and try again, NO L OR U FOUND
2021/03/23 09:36:46  RFID Entry Check the part and try again, NO L OR U FOUND
2021/03/23 09:36:51  RFID Entry Check the part and try again, NO L OR U FOUND
2021/03/23 09:36:56  RFID Entry Check the part and try again, NO L OR U FOUND
2021/03/23 09:37:01  RFID Entry Check the part and try again, NO L OR U FOUND
2021/03/23 09:37:06  RFID Entry Check the part and try again, NO L OR U FOUND
2021/03/23 09:37:11  RFID Entry Check the part and try again, NO L OR U FOUND
2021/03/23 09:37:16  RFID Entry Check the part and try again, NO L OR U FOUND
2021/03/23 09:37:21  RFID Entry Check the part and try again, NO L OR U FOUND
2021/03/23 09:37:26  RFID Entry Check the part and try again, NO L OR U FOUND
2021/03/23 09:37:31  RFID Entry Check the part and try again, NO L OR U FOUND
2021/03/23 09:37:36  RFID Entry Check the part and try again, NO L OR U FOUND
2021/03/23 09:37:41  RFID Entry Check the part and try again, NO L OR U FOUND
2021/03/23 09:37:46  RFID Entry Check the part and try again, NO L OR U FOUND
2021/03/23 09:37:51  RFID Entry Check the part and try again, NO L OR U FOUND
2021/03/23 09:37:56  RFID Entry Check the part and try again, NO L OR U FOUND
2021/03/23 09:38:01  RFID Entry Check the part and try again, NO L OR U FOUND
2021/03/23 09:38:06  RFID Entry Check the part and try again, NO L OR U FOUND
2021/03/23 09:38:11  RFID Entry Check the part and try again, NO L OR U FOUND
2021/03/23 09:38:16  RFID Entry Check the part and try again, NO L OR U FOUND
2021/03/23 09:38:21  RFID Entry Check the part and try again, NO L OR U FOUND
2021/03/23 09:38:26  RFID Entry Check the part and try again, NO L OR U FOUND
2021/03/23 09:38:31  RFID Entry Check the part and try again, NO L OR U FOUND
2021/03/23 09:38:36  RFID Entry Check the part and try again, NO L OR U FOUND
2021/03/23 09:38:41  RFID Entry Check the part and try again, NO L OR U FOUND
2021/03/23 09:38:46  RFID Entry Check the part and try again, NO L OR U FOUND
2021/03/23 09:38:51  RFID Entry Check the part and try again, NO L OR U FOUND
2021/03/23 09:38:56  RFID Entry Check the part and try again, NO L OR U FOUND
2021/03/23 09:39:01  RFID Entry Check the part and try again, NO L OR U FOUND
2021/03/23 09:39:06  RFID Entry Check the part and try again, NO L OR U FOUND
2021/03/23 09:39:11  RFID Entry Check the part and try again, NO L OR U FOUND
2021/03/23 09:39:16  RFID Entry Check the part and try again, NO L OR U FOUND
2021/03/23 09:39:21  RFID Entry Check the part and try again, NO L OR U FOUND
2021/03/23 09:39:26  RFID Entry Check the part and try again, NO L OR U FOUND
2021/03/23 09:39:31  RFID Entry Check the part and try again, NO L OR U FOUND
2021/03/23 09:39:36  RFID Entry Check the part and try again, NO L OR U FOUND
2021/03/23 09:39:41  RFID Entry Check the part and try again, NO L OR U FOUND
2021/03/23 09:39:46  RFID Entry Check the part and try again, NO L OR U FOUND
2021/03/23 09:39:51  RFID Entry Check the part and try again, NO L OR U FOUND
2021/03/23 09:39:56  RFID Entry Check the part and try again, NO L OR U FOUND
2021/03/23 09:40:01  RFID Entry Check the part and try again, NO L OR U FOUND
2021/03/24 12:03:32  RFID Entry Check the part and try again, NO L OR U FOUND
2021/03/24 12:03:36  RFID Entry Check the part and try again, NO L OR U FOUND
2021/03/24 12:03:46  RFID Entry Check the part and try again, NO L OR U FOUND
2021/03/24 12:03:51  RFID Entry Check the part and try again, NO L OR U FOUND
2021/03/24 12:03:56  RFID Entry Check the part and try again, NO L OR U FOUND
2021/03/24 12:04:01  RFID Entry Check the part and try again, NO L OR U FOUND
2021/03/24 12:04:06  RFID Entry Check the part and try again, NO L OR U FOUND
2021/03/24 12:04:11  RFID Entry Check the part and try again, NO L OR U FOUND
2021/03/24 12:04:16  RFID Entry Check the part and try again, NO L OR U FOUND
2021/03/24 12:04:21  RFID Entry Check the part and try again, NO L OR U FOUND
2021/03/24 12:04:26  RFID Entry Check the part and try again, NO L OR U FOUND
2021/03/24 12:04:31  RFID Entry Check the part and try again, NO L OR U FOUND
2021/03/24 12:04:36  RFID Entry Check the part and try again, NO L OR U FOUND
2021/03/24 12:04:41  RFID Entry Check the part and try again, NO L OR U FOUND
2021/03/24 12:04:46  RFID Entry Check the part and try again, NO L OR U FOUND
2021/03/24 12:04:51  RFID Entry Check the part and try again, NO L OR U FOUND
2021/03/24 12:04:56  RFID Entry Check the part and try again, NO L OR U FOUND
2021/03/24 12:05:01  RFID Entry Check the part and try again, NO L OR U FOUND
2021/03/24 12:05:06  RFID Entry Check the part and try again, NO L OR U FOUND
2021/03/24 12:05:11  RFID Entry Check the part and try again, NO L OR U FOUND
2021/03/24 12:05:16  RFID Entry Check the part and try again, NO L OR U FOUND
2021/03/24 12:05:21  RFID Entry Check the part and try again, NO L OR U FOUND
2021/03/24 12:05:26  RFID Entry Check the part and try again, NO L OR U FOUND
2021/03/24 12:05:31  RFID Entry Check the part and try again, NO L OR U FOUND
2021/03/24 12:05:36  RFID Entry Check the part and try again, NO L OR U FOUND
2021/03/24 12:05:41  RFID Entry Check the part and try again, NO L OR U FOUND
2021/03/24 12:05:46  RFID Entry Check the part and try again, NO L OR U FOUND
2021/03/24 12:05:51  RFID Entry Check the part and try again, NO L OR U FOUND
2021/03/24 12:05:56  RFID Entry Check the part and try again, NO L OR U FOUND
2021/03/24 12:06:01  RFID Entry Check the part and try again, NO L OR U FOUND
2021/03/24 12:06:06  RFID Entry Check the part and try again, NO L OR U FOUND
2021/03/24 12:06:11  RFID Entry Check the part and try again, NO L OR U FOUND
2021/03/24 12:06:16  RFID Entry Check the part and try again, NO L OR U FOUND
2021/03/24 12:06:21  RFID Entry Check the part and try again, NO L OR U FOUND
2021/03/24 12:06:49  RFID Entry Check the part and try again, NO L OR U FOUND
2021/03/24 12:06:52  RFID Entry Check the part and try again, NO L OR U FOUND
2021/03/24 12:07:02  RFID Entry Check the part and try again, NO L OR U FOUND
2021/03/24 12:07:07  RFID Entry Check the part and try again, NO L OR U FOUND
2021/03/24 12:07:12  RFID Entry Check the part and try again, NO L OR U FOUND
2021/03/24 12:07:17  RFID Entry Check the part and try again, NO L OR U FOUND
2021/03/24 12:07:22  RFID Entry Check the part and try again, NO L OR U FOUND
2021/03/24 12:07:27  RFID Entry Check the part and try again, NO L OR U FOUND
2021/03/24 12:07:32  RFID Entry Check the part and try again, NO L OR U FOUND
2021/03/24 12:50:07  RFID Entry Check the part and try again, NO L OR U FOUND
2021/03/24 12:50:11  RFID Entry Check the part and try again, NO L OR U FOUND
2021/03/24 12:50:16  RFID Entry Check the part and try again, NO L OR U FOUND
2021/03/24 12:50:26  RFID Entry Check the part and try again, NO L OR U FOUND
2021/03/24 12:50:31  RFID Entry Check the part and try again, NO L OR U FOUND
2021/03/24 12:50:36  RFID Entry Check the part and try again, NO L OR U FOUND
2021/03/24 12:50:41  RFID Entry Check the part and try again, NO L OR U FOUND
2021/03/24 12:50:46  RFID Entry Check the part and try again, NO L OR U FOUND
2021/03/24 12:50:51  RFID Entry Check the part and try again, NO L OR U FOUND
2021/03/24 12:54:19  RFID Entry Check the part and try again, NO L OR U FOUND
2021/03/24 12:54:20  RFID Entry Check the part and try again, NO L OR U FOUND
2021/03/24 12:54:23  RFID Entry Check the part and try again, NO L OR U FOUND
2021/03/24 12:54:28  RFID Entry Check the part and try again, NO L OR U FOUND
2021/03/24 12:54:38  RFID Entry Check the part and try again, NO L OR U FOUND
2021/03/24 12:54:43  RFID Entry Check the part and try again, NO L OR U FOUND
2021/03/24 12:54:48  RFID Entry Check the part and try again, NO L OR U FOUND
2021/03/24 12:54:58  RFID Entry Check the part and try again, NO L OR U FOUND
2021/03/24 12:55:03  RFID Entry Check the part and try again, NO L OR U FOUND
2021/03/24 12:57:50  RFID Entry Check the part and try again, NO L OR U FOUND
2021/03/24 12:57:55  RFID Entry Check the part and try again, NO L OR U FOUND
2021/03/24 12:58:05  RFID Entry Check the part and try again, NO L OR U FOUND
2021/03/24 12:58:20  RFID Entry Check the part and try again, NO L OR U FOUND
2021/03/24 12:58:25  RFID Entry Check the part and try again, NO L OR U FOUND
2021/04/02 12:17:13  RFID Entry Check the part and try again, NO L OR U FOUND
2021/04/02 12:17:18  RFID Entry Check the part and try again, NO L OR U FOUND
2021/04/02 12:17:23  RFID Entry Check the part and try again, NO L OR U FOUND
2021/04/02 12:17:28  RFID Entry Check the part and try again, NO L OR U FOUND
2021/04/02 12:17:38  RFID Entry Check the part and try again, NO L OR U FOUND
2021/04/02 12:17:43  RFID Entry Check the part and try again, NO L OR U FOUND
